{
    "/storage/compiled/js/app.js": "/storage/compiled/js/app.js",
    "/storage/compiled/js/editorq.js": "/storage/compiled/js/editorq.js",
    "/storage/compiled/css/app.css": "/storage/compiled/css/app.css"
}
